<?xml version="1.0" encoding="UTF-8"?>
<!-- PackageName: ReSA -->
<!-- SPDX-FileCopyrightText: 2022 Karmjit Mahil -->
<!-- SPDX-License-Identifier: CC-BY-SA-4.0 -->
<!DOCTYPE svg PUBLIC "-//W3C//DTD SVG 1.1//EN" "http://www.w3.org/Graphics/SVG/1.1/DTD/svg11.dtd">
<svg xmlns="http://www.w3.org/2000/svg" xmlns:xlink="http://www.w3.org/1999/xlink" version="1.1" width="720px" height="497px" viewBox="-0.5 -0.5 720 497"><defs/><g><path d="M 362.97 260 L 363 385 L 155.97 385" fill="none" stroke="#bababa" stroke-miterlimit="10" pointer-events="stroke"/><ellipse cx="152.97" cy="385" rx="3" ry="3" fill="#bababa" stroke="#bababa" pointer-events="all"/><path d="M 142.97 392 L 143 165 L 277.97 165" fill="none" stroke="#bababa" stroke-miterlimit="10" pointer-events="stroke"/><ellipse cx="142.97" cy="395" rx="3" ry="3" fill="#bababa" stroke="#bababa" pointer-events="all"/><path d="M 192.97 347 L 193 215 L 277.97 215" fill="none" stroke="#bababa" stroke-miterlimit="10" pointer-events="stroke"/><ellipse cx="192.97" cy="350" rx="3" ry="3" fill="#bababa" stroke="#bababa" pointer-events="all"/><rect x="157.97" y="140" width="120" height="20" fill="none" stroke="#000000" pointer-events="all"/><path d="M 197.97 140 L 197.97 160" fill="none" stroke="#000000" stroke-miterlimit="10" pointer-events="all"/><path d="M 237.97 140 L 237.97 160" fill="none" stroke="#000000" stroke-miterlimit="10" pointer-events="all"/><path d="M 157.97 140 M 277.97 140 M 277.97 160 M 157.97 160" fill="none" stroke="#000000" stroke-miterlimit="10" pointer-events="all"/><rect x="157.97" y="140" width="40" height="20" fill="none" stroke="none" pointer-events="all"/><path d="M 157.97 140 M 197.97 140 M 197.97 160 M 157.97 160" fill="none" stroke="#000000" stroke-miterlimit="10" pointer-events="all"/><rect x="197.97" y="140" width="40" height="20" fill="none" stroke="none" pointer-events="all"/><path d="M 197.97 140 M 237.97 140 M 237.97 160 M 197.97 160" fill="none" stroke="#000000" stroke-miterlimit="10" pointer-events="all"/><rect x="237.97" y="140" width="40" height="20" fill="none" stroke="none" pointer-events="all"/><path d="M 237.97 140 M 277.97 140 M 277.97 160 M 237.97 160" fill="none" stroke="#000000" stroke-miterlimit="10" pointer-events="all"/><rect x="202.97" y="120" width="30" height="20" fill="none" stroke="none" pointer-events="all"/><g transform="translate(-0.5 -0.5)"><switch><foreignObject style="overflow: visible; text-align: left;" pointer-events="none" width="100%" height="100%" requiredFeatures="http://www.w3.org/TR/SVG11/feature#Extensibility"><div xmlns="http://www.w3.org/1999/xhtml" style="display: flex; align-items: unsafe center; justify-content: unsafe center; width: 1px; height: 1px; padding-top: 130px; margin-left: 218px;"><div style="box-sizing: border-box; font-size: 0; text-align: center; "><div style="display: inline-block; font-size: 12px; font-family: Helvetica; color: #000000; line-height: 1.2; pointer-events: all; white-space: nowrap; ">IDF</div></div></div></foreignObject><text x="218" y="134" fill="#000000" font-family="Helvetica" font-size="12px" text-anchor="middle">IDF</text></switch></g><path d="M 97.97 140 L 98.03 159.97 L 127.62 159.97 L 127.63 172.15" fill="none" stroke="#000000" stroke-miterlimit="10" pointer-events="stroke"/><path d="M 127.63 177.4 L 124.13 170.4 L 127.63 172.15 L 131.13 170.4 Z" fill="#000000" stroke="#000000" stroke-miterlimit="10" pointer-events="all"/><path d="M 117.97 120 L 138.03 119.97 L 138.03 149.97 L 151.6 149.99" fill="none" stroke="#000000" stroke-miterlimit="10" pointer-events="stroke"/><path d="M 156.85 150 L 149.85 153.49 L 151.6 149.99 L 149.86 146.49 Z" fill="#000000" stroke="#000000" stroke-miterlimit="10" pointer-events="all"/><ellipse cx="97.97" cy="120" rx="20" ry="20" fill="none" stroke="#000000" pointer-events="all"/><g transform="translate(-0.5 -0.5)"><switch><foreignObject style="overflow: visible; text-align: left;" pointer-events="none" width="100%" height="100%" requiredFeatures="http://www.w3.org/TR/SVG11/feature#Extensibility"><div xmlns="http://www.w3.org/1999/xhtml" style="display: flex; align-items: unsafe center; justify-content: unsafe center; width: 38px; height: 1px; padding-top: 120px; margin-left: 79px;"><div style="box-sizing: border-box; font-size: 0; text-align: center; "><div style="display: inline-block; font-size: 12px; font-family: Helvetica; color: #000000; line-height: 1.2; pointer-events: all; white-space: normal; word-wrap: normal; ">ICL</div></div></div></foreignObject><text x="98" y="124" fill="#000000" font-family="Helvetica" font-size="12px" text-anchor="middle">ICL</text></switch></g><path d="M 187.97 200 L 208.03 199.97 L 188.03 199.97 L 201.6 199.97" fill="none" stroke="#000000" stroke-miterlimit="10" pointer-events="stroke"/><path d="M 206.85 199.97 L 199.85 203.47 L 201.6 199.97 L 199.85 196.47 Z" fill="#000000" stroke="#000000" stroke-miterlimit="10" pointer-events="all"/><path d="M 177.97 210 L 177.97 223.63" fill="none" stroke="#000000" stroke-miterlimit="10" pointer-events="stroke"/><path d="M 177.97 228.88 L 174.47 221.88 L 177.97 223.63 L 181.47 221.88 Z" fill="#000000" stroke="#000000" stroke-miterlimit="10" pointer-events="all"/><path d="M 170.9 192.93 L 142.97 185" fill="none" stroke="#bababa" stroke-miterlimit="10" pointer-events="stroke"/><ellipse cx="177.97" cy="200" rx="10" ry="10" fill="none" stroke="#000000" pointer-events="all"/><g transform="translate(-0.5 -0.5)"><switch><foreignObject style="overflow: visible; text-align: left;" pointer-events="none" width="100%" height="100%" requiredFeatures="http://www.w3.org/TR/SVG11/feature#Extensibility"><div xmlns="http://www.w3.org/1999/xhtml" style="display: flex; align-items: unsafe center; justify-content: unsafe center; width: 18px; height: 1px; padding-top: 200px; margin-left: 169px;"><div style="box-sizing: border-box; font-size: 0; text-align: center; "><div style="display: inline-block; font-size: 10px; font-family: Helvetica; color: #000000; line-height: 1.2; pointer-events: all; white-space: normal; word-wrap: normal; "><font style="font-size: 10px">PE</font></div></div></div></foreignObject><text x="178" y="203" fill="#000000" font-family="Helvetica" font-size="10px" text-anchor="middle">PE</text></switch></g><rect x="117.97" y="180" width="20" height="120" fill="none" stroke="#000000" pointer-events="all"/><path d="M 117.97 220 L 137.97 220" fill="none" stroke="#000000" stroke-miterlimit="10" pointer-events="all"/><path d="M 117.97 260 L 137.97 260" fill="none" stroke="#000000" stroke-miterlimit="10" pointer-events="all"/><path d="M 117.97 180 M 137.97 180 M 137.97 220 M 117.97 220" fill="none" stroke="#000000" stroke-miterlimit="10" pointer-events="all"/><rect x="117.97" y="180" width="20" height="40" fill="none" stroke="none" pointer-events="all"/><path d="M 117.97 180 M 137.97 180 M 137.97 220 M 117.97 220" fill="none" stroke="#000000" stroke-miterlimit="10" pointer-events="all"/><path d="M 117.97 220 M 137.97 220 M 137.97 260 M 117.97 260" fill="none" stroke="#000000" stroke-miterlimit="10" pointer-events="all"/><rect x="117.97" y="220" width="20" height="40" fill="none" stroke="none" pointer-events="all"/><path d="M 117.97 220 M 137.97 220 M 137.97 260 M 117.97 260" fill="none" stroke="#000000" stroke-miterlimit="10" pointer-events="all"/><path d="M 117.97 260 M 137.97 260 M 137.97 300 M 117.97 300" fill="none" stroke="#000000" stroke-miterlimit="10" pointer-events="all"/><rect x="117.97" y="260" width="20" height="40" fill="none" stroke="none" pointer-events="all"/><path d="M 117.97 260 M 137.97 260 M 137.97 300 M 117.97 300" fill="none" stroke="#000000" stroke-miterlimit="10" pointer-events="all"/><path d="M 227.97 200 L 241.6 200" fill="none" stroke="#000000" stroke-miterlimit="10" pointer-events="stroke"/><path d="M 246.85 200 L 239.85 203.5 L 241.6 200 L 239.85 196.5 Z" fill="#000000" stroke="#000000" stroke-miterlimit="10" pointer-events="all"/><path d="M 217.97 210 L 217.97 223.63" fill="none" stroke="#000000" stroke-miterlimit="10" pointer-events="stroke"/><path d="M 217.97 228.88 L 214.47 221.88 L 217.97 223.63 L 221.47 221.88 Z" fill="#000000" stroke="#000000" stroke-miterlimit="10" pointer-events="all"/><path d="M 210.9 192.93 L 197.97 165" fill="none" stroke="#bababa" stroke-miterlimit="10" pointer-events="stroke"/><ellipse cx="217.97" cy="200" rx="10" ry="10" fill="none" stroke="#000000" pointer-events="all"/><g transform="translate(-0.5 -0.5)"><switch><foreignObject style="overflow: visible; text-align: left;" pointer-events="none" width="100%" height="100%" requiredFeatures="http://www.w3.org/TR/SVG11/feature#Extensibility"><div xmlns="http://www.w3.org/1999/xhtml" style="display: flex; align-items: unsafe center; justify-content: unsafe center; width: 18px; height: 1px; padding-top: 200px; margin-left: 209px;"><div style="box-sizing: border-box; font-size: 0; text-align: center; "><div style="display: inline-block; font-size: 10px; font-family: Helvetica; color: #000000; line-height: 1.2; pointer-events: all; white-space: normal; word-wrap: normal; "><font style="font-size: 10px">PE</font></div></div></div></foreignObject><text x="218" y="203" fill="#000000" font-family="Helvetica" font-size="10px" text-anchor="middle">PE</text></switch></g><path d="M 187.97 240 L 201.6 240" fill="none" stroke="#000000" stroke-miterlimit="10" pointer-events="stroke"/><path d="M 206.85 240 L 199.85 243.5 L 201.6 240 L 199.85 236.5 Z" fill="#000000" stroke="#000000" stroke-miterlimit="10" pointer-events="all"/><path d="M 177.97 250 L 177.97 263.63" fill="none" stroke="#000000" stroke-miterlimit="10" pointer-events="stroke"/><path d="M 177.97 268.88 L 174.47 261.88 L 177.97 263.63 L 181.47 261.88 Z" fill="#000000" stroke="#000000" stroke-miterlimit="10" pointer-events="all"/><path d="M 170.9 232.93 L 142.97 225" fill="none" stroke="#bababa" stroke-miterlimit="10" pointer-events="stroke"/><ellipse cx="177.97" cy="240" rx="10" ry="10" fill="none" stroke="#000000" pointer-events="all"/><g transform="translate(-0.5 -0.5)"><switch><foreignObject style="overflow: visible; text-align: left;" pointer-events="none" width="100%" height="100%" requiredFeatures="http://www.w3.org/TR/SVG11/feature#Extensibility"><div xmlns="http://www.w3.org/1999/xhtml" style="display: flex; align-items: unsafe center; justify-content: unsafe center; width: 18px; height: 1px; padding-top: 240px; margin-left: 169px;"><div style="box-sizing: border-box; font-size: 0; text-align: center; "><div style="display: inline-block; font-size: 10px; font-family: Helvetica; color: #000000; line-height: 1.2; pointer-events: all; white-space: normal; word-wrap: normal; "><font style="font-size: 10px">PE</font></div></div></div></foreignObject><text x="178" y="243" fill="#000000" font-family="Helvetica" font-size="10px" text-anchor="middle">PE</text></switch></g><path d="M 217.97 250 L 217.97 263.63" fill="none" stroke="#000000" stroke-miterlimit="10" pointer-events="stroke"/><path d="M 217.97 268.88 L 214.47 261.88 L 217.97 263.63 L 221.47 261.88 Z" fill="#000000" stroke="#000000" stroke-miterlimit="10" pointer-events="all"/><path d="M 227.97 240 L 241.6 240" fill="none" stroke="#000000" stroke-miterlimit="10" pointer-events="stroke"/><path d="M 246.85 240 L 239.85 243.5 L 241.6 240 L 239.85 236.5 Z" fill="#000000" stroke="#000000" stroke-miterlimit="10" pointer-events="all"/><path d="M 210.9 232.93 L 192.97 225" fill="none" stroke="#bababa" stroke-miterlimit="10" pointer-events="stroke"/><ellipse cx="217.97" cy="240" rx="10" ry="10" fill="none" stroke="#000000" pointer-events="all"/><g transform="translate(-0.5 -0.5)"><switch><foreignObject style="overflow: visible; text-align: left;" pointer-events="none" width="100%" height="100%" requiredFeatures="http://www.w3.org/TR/SVG11/feature#Extensibility"><div xmlns="http://www.w3.org/1999/xhtml" style="display: flex; align-items: unsafe center; justify-content: unsafe center; width: 18px; height: 1px; padding-top: 240px; margin-left: 209px;"><div style="box-sizing: border-box; font-size: 0; text-align: center; "><div style="display: inline-block; font-size: 10px; font-family: Helvetica; color: #000000; line-height: 1.2; pointer-events: all; white-space: normal; word-wrap: normal; "><font style="font-size: 10px">PE</font></div></div></div></foreignObject><text x="218" y="243" fill="#000000" font-family="Helvetica" font-size="10px" text-anchor="middle">PE</text></switch></g><path d="M 187.97 280 L 201.6 280" fill="none" stroke="#000000" stroke-miterlimit="10" pointer-events="stroke"/><path d="M 206.85 280 L 199.85 283.5 L 201.6 280 L 199.85 276.5 Z" fill="#000000" stroke="#000000" stroke-miterlimit="10" pointer-events="all"/><path d="M 177.97 290 L 177.97 303.63" fill="none" stroke="#000000" stroke-miterlimit="10" pointer-events="stroke"/><path d="M 177.97 308.88 L 174.47 301.88 L 177.97 303.63 L 181.47 301.88 Z" fill="#000000" stroke="#000000" stroke-miterlimit="10" pointer-events="all"/><path d="M 170.9 272.93 L 142.97 265" fill="none" stroke="#bababa" stroke-miterlimit="10" pointer-events="stroke"/><ellipse cx="177.97" cy="280" rx="10" ry="10" fill="none" stroke="#000000" pointer-events="all"/><g transform="translate(-0.5 -0.5)"><switch><foreignObject style="overflow: visible; text-align: left;" pointer-events="none" width="100%" height="100%" requiredFeatures="http://www.w3.org/TR/SVG11/feature#Extensibility"><div xmlns="http://www.w3.org/1999/xhtml" style="display: flex; align-items: unsafe center; justify-content: unsafe center; width: 18px; height: 1px; padding-top: 280px; margin-left: 169px;"><div style="box-sizing: border-box; font-size: 0; text-align: center; "><div style="display: inline-block; font-size: 10px; font-family: Helvetica; color: #000000; line-height: 1.2; pointer-events: all; white-space: normal; word-wrap: normal; "><font style="font-size: 10px">PE</font></div></div></div></foreignObject><text x="178" y="283" fill="#000000" font-family="Helvetica" font-size="10px" text-anchor="middle">PE</text></switch></g><path d="M 257.97 210 L 257.97 223.63" fill="none" stroke="#000000" stroke-miterlimit="10" pointer-events="stroke"/><path d="M 257.97 228.88 L 254.47 221.88 L 257.97 223.63 L 261.47 221.88 Z" fill="#000000" stroke="#000000" stroke-miterlimit="10" pointer-events="all"/><path d="M 267.97 200 L 281.6 200" fill="none" stroke="#000000" stroke-miterlimit="10" pointer-events="stroke"/><path d="M 286.85 200 L 279.85 203.5 L 281.6 200 L 279.85 196.5 Z" fill="#000000" stroke="#000000" stroke-miterlimit="10" pointer-events="all"/><path d="M 250.9 192.93 L 237.97 165" fill="none" stroke="#bababa" stroke-miterlimit="10" pointer-events="stroke"/><ellipse cx="257.97" cy="200" rx="10" ry="10" fill="none" stroke="#000000" pointer-events="all"/><g transform="translate(-0.5 -0.5)"><switch><foreignObject style="overflow: visible; text-align: left;" pointer-events="none" width="100%" height="100%" requiredFeatures="http://www.w3.org/TR/SVG11/feature#Extensibility"><div xmlns="http://www.w3.org/1999/xhtml" style="display: flex; align-items: unsafe center; justify-content: unsafe center; width: 18px; height: 1px; padding-top: 200px; margin-left: 249px;"><div style="box-sizing: border-box; font-size: 0; text-align: center; "><div style="display: inline-block; font-size: 10px; font-family: Helvetica; color: #000000; line-height: 1.2; pointer-events: all; white-space: normal; word-wrap: normal; "><font style="font-size: 10px">PE</font></div></div></div></foreignObject><text x="258" y="203" fill="#000000" font-family="Helvetica" font-size="10px" text-anchor="middle">PE</text></switch></g><path d="M 177.97 345 L 177.97 315" fill="none" stroke="#000000" stroke-width="2" stroke-miterlimit="10" stroke-dasharray="2 6" pointer-events="stroke"/><path d="M 247.97 310 L 227.97 290" fill="none" stroke="#000000" stroke-width="2" stroke-miterlimit="10" stroke-dasharray="2 6" pointer-events="stroke"/><path d="M 287.97 270 L 267.97 250" fill="none" stroke="#000000" stroke-width="2" stroke-miterlimit="10" stroke-dasharray="2 6" pointer-events="stroke"/><path d="M 322.97 200 L 292.97 200" fill="none" stroke="#000000" stroke-width="2" stroke-miterlimit="10" stroke-dasharray="2 6" pointer-events="stroke"/><path d="M 177.97 160 L 177.97 183.63" fill="none" stroke="#000000" stroke-miterlimit="10" pointer-events="stroke"/><path d="M 177.97 188.88 L 174.47 181.88 L 177.97 183.63 L 181.47 181.88 Z" fill="#000000" stroke="#000000" stroke-miterlimit="10" pointer-events="all"/><path d="M 137.97 200 L 161.6 200" fill="none" stroke="#000000" stroke-miterlimit="10" pointer-events="stroke"/><path d="M 166.85 200 L 159.85 203.5 L 161.6 200 L 159.85 196.5 Z" fill="#000000" stroke="#000000" stroke-miterlimit="10" pointer-events="all"/><path d="M 137.97 240 L 161.6 240" fill="none" stroke="#000000" stroke-miterlimit="10" pointer-events="stroke"/><path d="M 166.85 240 L 159.85 243.5 L 161.6 240 L 159.85 236.5 Z" fill="#000000" stroke="#000000" stroke-miterlimit="10" pointer-events="all"/><path d="M 137.97 280 L 161.6 280" fill="none" stroke="#000000" stroke-miterlimit="10" pointer-events="stroke"/><path d="M 166.85 280 L 159.85 283.5 L 161.6 280 L 159.85 276.5 Z" fill="#000000" stroke="#000000" stroke-miterlimit="10" pointer-events="all"/><path d="M 217.97 160 L 217.97 183.63" fill="none" stroke="#000000" stroke-miterlimit="10" pointer-events="stroke"/><path d="M 217.97 188.88 L 214.47 181.88 L 217.97 183.63 L 221.47 181.88 Z" fill="#000000" stroke="#000000" stroke-miterlimit="10" pointer-events="all"/><path d="M 257.97 160 L 257.97 183.63" fill="none" stroke="#000000" stroke-miterlimit="10" pointer-events="stroke"/><path d="M 257.97 188.88 L 254.47 181.88 L 257.97 183.63 L 261.47 181.88 Z" fill="#000000" stroke="#000000" stroke-miterlimit="10" pointer-events="all"/><path d="M 312.97 150 L 310.47 150 Q 307.97 150 297.97 150 L 282.97 150" fill="none" stroke="#000000" stroke-width="2" stroke-miterlimit="10" stroke-dasharray="2 6" pointer-events="stroke"/><path d="M 127.97 335 L 127.97 305" fill="none" stroke="#000000" stroke-width="2" stroke-miterlimit="10" stroke-dasharray="2 6" pointer-events="stroke"/><rect x="92.97" y="230" width="30" height="20" fill="none" stroke="none" transform="rotate(-90,107.97,240)" pointer-events="all"/><g transform="translate(-0.5 -0.5)rotate(-90 107.97000000000003 239.9999999999999)"><switch><foreignObject style="overflow: visible; text-align: left;" pointer-events="none" width="100%" height="100%" requiredFeatures="http://www.w3.org/TR/SVG11/feature#Extensibility"><div xmlns="http://www.w3.org/1999/xhtml" style="display: flex; align-items: unsafe center; justify-content: unsafe center; width: 1px; height: 1px; padding-top: 240px; margin-left: 108px;"><div style="box-sizing: border-box; font-size: 0; text-align: center; "><div style="display: inline-block; font-size: 12px; font-family: Helvetica; color: #000000; line-height: 1.2; pointer-events: all; white-space: nowrap; ">IDF</div></div></div></foreignObject><text x="108" y="244" fill="#000000" font-family="Helvetica" font-size="12px" text-anchor="middle">IDF</text></switch></g><path d="M 267.97 360 L 288.03 359.97 L 268.03 359.97 L 281.6 359.97" fill="none" stroke="#000000" stroke-miterlimit="10" pointer-events="stroke"/><path d="M 286.85 359.97 L 279.85 363.47 L 281.6 359.97 L 279.85 356.47 Z" fill="#000000" stroke="#000000" stroke-miterlimit="10" pointer-events="all"/><path d="M 257.97 330 L 257.97 343.63" fill="none" stroke="#000000" stroke-miterlimit="10" pointer-events="stroke"/><path d="M 257.97 348.88 L 254.47 341.88 L 257.97 343.63 L 261.47 341.88 Z" fill="#000000" stroke="#000000" stroke-miterlimit="10" pointer-events="all"/><path d="M 257.97 370 L 258.1 393.25" fill="none" stroke="#000000" stroke-miterlimit="10" pointer-events="stroke"/><path d="M 258.12 398.5 L 254.59 391.52 L 258.1 393.25 L 261.59 391.48 Z" fill="#000000" stroke="#000000" stroke-miterlimit="10" pointer-events="all"/><path d="M 232.97 359.95 L 241.6 359.98" fill="none" stroke="#000000" stroke-miterlimit="10" pointer-events="stroke"/><path d="M 246.85 360 L 239.84 363.47 L 241.6 359.98 L 239.86 356.47 Z" fill="#000000" stroke="#000000" stroke-miterlimit="10" pointer-events="all"/><path d="M 265.04 367.07 L 272.97 385" fill="none" stroke="#bababa" stroke-miterlimit="10" pointer-events="stroke"/><ellipse cx="257.97" cy="360" rx="10" ry="10" fill="none" stroke="#000000" pointer-events="all"/><g transform="translate(-0.5 -0.5)"><switch><foreignObject style="overflow: visible; text-align: left;" pointer-events="none" width="100%" height="100%" requiredFeatures="http://www.w3.org/TR/SVG11/feature#Extensibility"><div xmlns="http://www.w3.org/1999/xhtml" style="display: flex; align-items: unsafe center; justify-content: unsafe center; width: 18px; height: 1px; padding-top: 360px; margin-left: 249px;"><div style="box-sizing: border-box; font-size: 0; text-align: center; "><div style="display: inline-block; font-size: 10px; font-family: Helvetica; color: #000000; line-height: 1.2; pointer-events: all; white-space: normal; word-wrap: normal; "><font style="font-size: 10px">PE</font></div></div></div></foreignObject><text x="258" y="363" fill="#000000" font-family="Helvetica" font-size="10px" text-anchor="middle">PE</text></switch></g><rect x="237.97" y="400" width="120" height="20" fill="none" stroke="#000000" pointer-events="all"/><path d="M 277.97 400 L 277.97 420" fill="none" stroke="#000000" stroke-miterlimit="10" pointer-events="all"/><path d="M 317.97 400 L 317.97 420" fill="none" stroke="#000000" stroke-miterlimit="10" pointer-events="all"/><path d="M 237.97 400 M 357.97 400 M 357.97 420 M 237.97 420" fill="none" stroke="#000000" stroke-miterlimit="10" pointer-events="all"/><rect x="237.97" y="400" width="40" height="20" fill="none" stroke="none" pointer-events="all"/><path d="M 237.97 400 M 277.97 400 M 277.97 420 M 237.97 420" fill="none" stroke="#000000" stroke-miterlimit="10" pointer-events="all"/><rect x="277.97" y="400" width="40" height="20" fill="none" stroke="none" pointer-events="all"/><path d="M 277.97 400 M 317.97 400 M 317.97 420 M 277.97 420" fill="none" stroke="#000000" stroke-miterlimit="10" pointer-events="all"/><rect x="317.97" y="400" width="40" height="20" fill="none" stroke="none" pointer-events="all"/><path d="M 317.97 400 M 357.97 400 M 357.97 420 M 317.97 420" fill="none" stroke="#000000" stroke-miterlimit="10" pointer-events="all"/><path d="M 307.97 360 L 321.6 360" fill="none" stroke="#000000" stroke-miterlimit="10" pointer-events="stroke"/><path d="M 326.85 360 L 319.85 363.5 L 321.6 360 L 319.85 356.5 Z" fill="#000000" stroke="#000000" stroke-miterlimit="10" pointer-events="all"/><path d="M 297.97 370 L 298.06 393.63" fill="none" stroke="#000000" stroke-miterlimit="10" pointer-events="stroke"/><path d="M 298.09 398.88 L 294.56 391.9 L 298.06 393.63 L 301.56 391.87 Z" fill="#000000" stroke="#000000" stroke-miterlimit="10" pointer-events="all"/><path d="M 305.04 367.07 L 312.97 385" fill="none" stroke="#bababa" stroke-miterlimit="10" pointer-events="stroke"/><ellipse cx="297.97" cy="360" rx="10" ry="10" fill="none" stroke="#000000" pointer-events="all"/><g transform="translate(-0.5 -0.5)"><switch><foreignObject style="overflow: visible; text-align: left;" pointer-events="none" width="100%" height="100%" requiredFeatures="http://www.w3.org/TR/SVG11/feature#Extensibility"><div xmlns="http://www.w3.org/1999/xhtml" style="display: flex; align-items: unsafe center; justify-content: unsafe center; width: 18px; height: 1px; padding-top: 360px; margin-left: 289px;"><div style="box-sizing: border-box; font-size: 0; text-align: center; "><div style="display: inline-block; font-size: 10px; font-family: Helvetica; color: #000000; line-height: 1.2; pointer-events: all; white-space: normal; word-wrap: normal; "><font style="font-size: 10px">PE</font></div></div></div></foreignObject><text x="298" y="363" fill="#000000" font-family="Helvetica" font-size="10px" text-anchor="middle">PE</text></switch></g><path d="M 337.97 370 L 337.94 393.83" fill="none" stroke="#000000" stroke-miterlimit="10" pointer-events="stroke"/><path d="M 337.93 399.08 L 334.44 392.08 L 337.94 393.83 L 341.44 392.09 Z" fill="#000000" stroke="#000000" stroke-miterlimit="10" pointer-events="all"/><path d="M 347.97 360 L 371.6 360" fill="none" stroke="#000000" stroke-miterlimit="10" pointer-events="stroke"/><path d="M 376.85 360 L 369.85 363.5 L 371.6 360 L 369.85 356.5 Z" fill="#000000" stroke="#000000" stroke-miterlimit="10" pointer-events="all"/><path d="M 345.04 367.07 L 352.97 385" fill="none" stroke="#bababa" stroke-miterlimit="10" pointer-events="stroke"/><ellipse cx="337.97" cy="360" rx="10" ry="10" fill="none" stroke="#000000" pointer-events="all"/><g transform="translate(-0.5 -0.5)"><switch><foreignObject style="overflow: visible; text-align: left;" pointer-events="none" width="100%" height="100%" requiredFeatures="http://www.w3.org/TR/SVG11/feature#Extensibility"><div xmlns="http://www.w3.org/1999/xhtml" style="display: flex; align-items: unsafe center; justify-content: unsafe center; width: 18px; height: 1px; padding-top: 360px; margin-left: 329px;"><div style="box-sizing: border-box; font-size: 0; text-align: center; "><div style="display: inline-block; font-size: 10px; font-family: Helvetica; color: #000000; line-height: 1.2; pointer-events: all; white-space: normal; word-wrap: normal; "><font style="font-size: 10px">PE</font></div></div></div></foreignObject><text x="338" y="363" fill="#000000" font-family="Helvetica" font-size="10px" text-anchor="middle">PE</text></switch></g><path d="M 227.97 405 L 225.47 405 Q 222.97 405 212.97 405 L 197.97 405" fill="none" stroke="#000000" stroke-width="2" stroke-miterlimit="10" stroke-dasharray="2 6" pointer-events="stroke"/><path d="M 297.97 330 L 297.97 343.63" fill="none" stroke="#000000" stroke-miterlimit="10" pointer-events="stroke"/><path d="M 297.97 348.88 L 294.47 341.88 L 297.97 343.63 L 301.47 341.88 Z" fill="#000000" stroke="#000000" stroke-miterlimit="10" pointer-events="all"/><path d="M 307.97 320 L 321.6 320" fill="none" stroke="#000000" stroke-miterlimit="10" pointer-events="stroke"/><path d="M 326.85 320 L 319.85 323.5 L 321.6 320 L 319.85 316.5 Z" fill="#000000" stroke="#000000" stroke-miterlimit="10" pointer-events="all"/><path d="M 297.97 290 L 297.97 303.63" fill="none" stroke="#000000" stroke-miterlimit="10" pointer-events="stroke"/><path d="M 297.97 308.88 L 294.47 301.88 L 297.97 303.63 L 301.47 301.88 Z" fill="#000000" stroke="#000000" stroke-miterlimit="10" pointer-events="all"/><path d="M 267.97 320 L 281.6 320" fill="none" stroke="#000000" stroke-miterlimit="10" pointer-events="stroke"/><path d="M 286.85 320 L 279.85 323.5 L 281.6 320 L 279.85 316.5 Z" fill="#000000" stroke="#000000" stroke-miterlimit="10" pointer-events="all"/><path d="M 305.04 327.07 L 307.97 335" fill="none" stroke="#bababa" stroke-miterlimit="10" pointer-events="stroke"/><ellipse cx="297.97" cy="320" rx="10" ry="10" fill="none" stroke="#000000" pointer-events="all"/><g transform="translate(-0.5 -0.5)"><switch><foreignObject style="overflow: visible; text-align: left;" pointer-events="none" width="100%" height="100%" requiredFeatures="http://www.w3.org/TR/SVG11/feature#Extensibility"><div xmlns="http://www.w3.org/1999/xhtml" style="display: flex; align-items: unsafe center; justify-content: unsafe center; width: 18px; height: 1px; padding-top: 320px; margin-left: 289px;"><div style="box-sizing: border-box; font-size: 0; text-align: center; "><div style="display: inline-block; font-size: 10px; font-family: Helvetica; color: #000000; line-height: 1.2; pointer-events: all; white-space: normal; word-wrap: normal; "><font style="font-size: 10px">PE</font></div></div></div></foreignObject><text x="298" y="323" fill="#000000" font-family="Helvetica" font-size="10px" text-anchor="middle">PE</text></switch></g><path d="M 337.97 330 L 337.97 343.63" fill="none" stroke="#000000" stroke-miterlimit="10" pointer-events="stroke"/><path d="M 337.97 348.88 L 334.47 341.88 L 337.97 343.63 L 341.47 341.88 Z" fill="#000000" stroke="#000000" stroke-miterlimit="10" pointer-events="all"/><path d="M 347.97 320 L 371.6 320" fill="none" stroke="#000000" stroke-miterlimit="10" pointer-events="stroke"/><path d="M 376.85 320 L 369.85 323.5 L 371.6 320 L 369.85 316.5 Z" fill="#000000" stroke="#000000" stroke-miterlimit="10" pointer-events="all"/><path d="M 345.04 327.07 L 362.97 335" fill="none" stroke="#bababa" stroke-miterlimit="10" pointer-events="stroke"/><ellipse cx="337.97" cy="320" rx="10" ry="10" fill="none" stroke="#000000" pointer-events="all"/><g transform="translate(-0.5 -0.5)"><switch><foreignObject style="overflow: visible; text-align: left;" pointer-events="none" width="100%" height="100%" requiredFeatures="http://www.w3.org/TR/SVG11/feature#Extensibility"><div xmlns="http://www.w3.org/1999/xhtml" style="display: flex; align-items: unsafe center; justify-content: unsafe center; width: 18px; height: 1px; padding-top: 320px; margin-left: 329px;"><div style="box-sizing: border-box; font-size: 0; text-align: center; "><div style="display: inline-block; font-size: 10px; font-family: Helvetica; color: #000000; line-height: 1.2; pointer-events: all; white-space: normal; word-wrap: normal; "><font style="font-size: 10px">PE</font></div></div></div></foreignObject><text x="338" y="323" fill="#000000" font-family="Helvetica" font-size="10px" text-anchor="middle">PE</text></switch></g><path d="M 337.97 290 L 337.97 303.63" fill="none" stroke="#000000" stroke-miterlimit="10" pointer-events="stroke"/><path d="M 337.97 308.88 L 334.47 301.88 L 337.97 303.63 L 341.47 301.88 Z" fill="#000000" stroke="#000000" stroke-miterlimit="10" pointer-events="all"/><path d="M 307.97 280 L 321.6 280" fill="none" stroke="#000000" stroke-miterlimit="10" pointer-events="stroke"/><path d="M 326.85 280 L 319.85 283.5 L 321.6 280 L 319.85 276.5 Z" fill="#000000" stroke="#000000" stroke-miterlimit="10" pointer-events="all"/><path d="M 337.97 250 L 337.97 263.63" fill="none" stroke="#000000" stroke-miterlimit="10" pointer-events="stroke"/><path d="M 337.97 268.88 L 334.47 261.88 L 337.97 263.63 L 341.47 261.88 Z" fill="#000000" stroke="#000000" stroke-miterlimit="10" pointer-events="all"/><path d="M 347.97 280 L 371.6 280" fill="none" stroke="#000000" stroke-miterlimit="10" pointer-events="stroke"/><path d="M 376.85 280 L 369.85 283.5 L 371.6 280 L 369.85 276.5 Z" fill="#000000" stroke="#000000" stroke-miterlimit="10" pointer-events="all"/><path d="M 345.04 287.07 L 362.97 295" fill="none" stroke="#bababa" stroke-miterlimit="10" pointer-events="stroke"/><ellipse cx="337.97" cy="280" rx="10" ry="10" fill="none" stroke="#000000" pointer-events="all"/><g transform="translate(-0.5 -0.5)"><switch><foreignObject style="overflow: visible; text-align: left;" pointer-events="none" width="100%" height="100%" requiredFeatures="http://www.w3.org/TR/SVG11/feature#Extensibility"><div xmlns="http://www.w3.org/1999/xhtml" style="display: flex; align-items: unsafe center; justify-content: unsafe center; width: 18px; height: 1px; padding-top: 280px; margin-left: 329px;"><div style="box-sizing: border-box; font-size: 0; text-align: center; "><div style="display: inline-block; font-size: 10px; font-family: Helvetica; color: #000000; line-height: 1.2; pointer-events: all; white-space: normal; word-wrap: normal; "><font style="font-size: 10px">PE</font></div></div></div></foreignObject><text x="338" y="283" fill="#000000" font-family="Helvetica" font-size="10px" text-anchor="middle">PE</text></switch></g><rect x="377.97" y="260" width="20" height="120" fill="none" stroke="#000000" pointer-events="all"/><path d="M 377.97 300 L 397.97 300" fill="none" stroke="#000000" stroke-miterlimit="10" pointer-events="all"/><path d="M 377.97 340 L 397.97 340" fill="none" stroke="#000000" stroke-miterlimit="10" pointer-events="all"/><path d="M 377.97 260 M 397.97 260 M 397.97 300 M 377.97 300" fill="none" stroke="#000000" stroke-miterlimit="10" pointer-events="all"/><rect x="377.97" y="260" width="20" height="40" fill="none" stroke="none" pointer-events="all"/><path d="M 377.97 260 M 397.97 260 M 397.97 300 M 377.97 300" fill="none" stroke="#000000" stroke-miterlimit="10" pointer-events="all"/><path d="M 377.97 300 M 397.97 300 M 397.97 340 M 377.97 340" fill="none" stroke="#000000" stroke-miterlimit="10" pointer-events="all"/><rect x="377.97" y="300" width="20" height="40" fill="none" stroke="none" pointer-events="all"/><path d="M 377.97 300 M 397.97 300 M 397.97 340 M 377.97 340" fill="none" stroke="#000000" stroke-miterlimit="10" pointer-events="all"/><path d="M 377.97 340 M 397.97 340 M 397.97 380 M 377.97 380" fill="none" stroke="#000000" stroke-miterlimit="10" pointer-events="all"/><rect x="377.97" y="340" width="20" height="40" fill="none" stroke="none" pointer-events="all"/><path d="M 377.97 340 M 397.97 340 M 397.97 380 M 377.97 380" fill="none" stroke="#000000" stroke-miterlimit="10" pointer-events="all"/><path d="M 387.97 250 L 387.97 220" fill="none" stroke="#000000" stroke-width="2" stroke-miterlimit="10" stroke-dasharray="2 6" pointer-events="stroke"/><path d="M 337.97 245 L 337.97 215" fill="none" stroke="#000000" stroke-width="2" stroke-miterlimit="10" stroke-dasharray="2 6" pointer-events="stroke"/><path d="M 222.97 360 L 192.97 360" fill="none" stroke="#000000" stroke-width="2" stroke-miterlimit="10" stroke-dasharray="2 6" pointer-events="stroke"/><path d="M 387.97 380 L 388.03 399.97 L 418.03 399.97 L 417.99 413.63" fill="none" stroke="#000000" stroke-miterlimit="10" pointer-events="stroke"/><path d="M 417.97 418.88 L 414.5 411.87 L 417.99 413.63 L 421.5 411.89 Z" fill="#000000" stroke="#000000" stroke-miterlimit="10" pointer-events="all"/><path d="M 437.97 440 L 458.03 440.03 L 457.97 186.37" fill="none" stroke="#000000" stroke-miterlimit="10" pointer-events="stroke"/><path d="M 457.97 181.12 L 461.47 188.12 L 457.97 186.37 L 454.47 188.12 Z" fill="#000000" stroke="#000000" stroke-miterlimit="10" pointer-events="all"/><ellipse cx="417.97" cy="440" rx="20" ry="20" fill="none" stroke="#000000" pointer-events="all"/><g transform="translate(-0.5 -0.5)"><switch><foreignObject style="overflow: visible; text-align: left;" pointer-events="none" width="100%" height="100%" requiredFeatures="http://www.w3.org/TR/SVG11/feature#Extensibility"><div xmlns="http://www.w3.org/1999/xhtml" style="display: flex; align-items: unsafe center; justify-content: unsafe center; width: 38px; height: 1px; padding-top: 440px; margin-left: 399px;"><div style="box-sizing: border-box; font-size: 0; text-align: center; "><div style="display: inline-block; font-size: 12px; font-family: Helvetica; color: #000000; line-height: 1.2; pointer-events: all; white-space: normal; word-wrap: normal; ">OCL</div></div></div></foreignObject><text x="418" y="444" fill="#000000" font-family="Helvetica" font-size="12px" text-anchor="middle">OCL</text></switch></g><path d="M 357.97 410 L 378.03 409.97 L 378.03 440.03 L 391.6 440.01" fill="none" stroke="#000000" stroke-miterlimit="10" pointer-events="stroke"/><path d="M 396.85 440 L 389.86 443.51 L 391.6 440.01 L 389.85 436.51 Z" fill="#000000" stroke="#000000" stroke-miterlimit="10" pointer-events="all"/><rect x="657.97" y="60" width="60" height="60" rx="9" ry="9" fill="none" stroke="#000000" pointer-events="all"/><g transform="translate(-0.5 -0.5)"><switch><foreignObject style="overflow: visible; text-align: left;" pointer-events="none" width="100%" height="100%" requiredFeatures="http://www.w3.org/TR/SVG11/feature#Extensibility"><div xmlns="http://www.w3.org/1999/xhtml" style="display: flex; align-items: unsafe center; justify-content: unsafe center; width: 58px; height: 1px; padding-top: 90px; margin-left: 659px;"><div style="box-sizing: border-box; font-size: 0; text-align: center; "><div style="display: inline-block; font-size: 10px; font-family: Helvetica; color: #000000; line-height: 1.2; pointer-events: all; white-space: normal; word-wrap: normal; ">CPU</div></div></div></foreignObject><text x="688" y="93" fill="#000000" font-family="Helvetica" font-size="10px" text-anchor="middle">CPU</text></switch></g><path d="M 614.34 90 L 651.6 90" fill="none" stroke="#000000" stroke-miterlimit="10" pointer-events="stroke"/><path d="M 609.09 90 L 616.09 86.5 L 614.34 90 L 616.09 93.5 Z" fill="#000000" stroke="#000000" stroke-miterlimit="10" pointer-events="all"/><path d="M 656.85 90 L 649.85 93.5 L 651.6 90 L 649.85 86.5 Z" fill="#000000" stroke="#000000" stroke-miterlimit="10" pointer-events="all"/><rect x="547.97" y="0" width="60" height="180" rx="9" ry="9" fill="none" stroke="#000000" pointer-events="all"/><g transform="translate(-0.5 -0.5)"><switch><foreignObject style="overflow: visible; text-align: left;" pointer-events="none" width="100%" height="100%" requiredFeatures="http://www.w3.org/TR/SVG11/feature#Extensibility"><div xmlns="http://www.w3.org/1999/xhtml" style="display: flex; align-items: unsafe center; justify-content: unsafe center; width: 58px; height: 1px; padding-top: 90px; margin-left: 549px;"><div style="box-sizing: border-box; font-size: 0; text-align: center; "><div style="display: inline-block; font-size: 10px; font-family: Helvetica; color: #000000; line-height: 1.2; pointer-events: all; white-space: normal; word-wrap: normal; ">Memory Address Range</div></div></div></foreignObject><text x="578" y="93" fill="#000000" font-family="Helvetica" font-size="10px" text-anchor="middle">Memory Addre...</text></switch></g><path d="M 457.97 120 L 458.03 79.97 L 98.03 79.97 L 97.99 93.63" fill="none" stroke="#000000" stroke-miterlimit="10" pointer-events="stroke"/><path d="M 97.97 98.88 L 94.5 91.87 L 97.99 93.63 L 101.5 91.89 Z" fill="#000000" stroke="#000000" stroke-miterlimit="10" pointer-events="all"/><path d="M 504.34 149.99 L 525.48 149.97 L 548.25 150.26" fill="none" stroke="#000000" stroke-miterlimit="10" pointer-events="stroke"/><path d="M 499.09 150 L 506.08 146.49 L 504.34 149.99 L 506.09 153.49 Z" fill="#000000" stroke="#000000" stroke-miterlimit="10" pointer-events="all"/><path d="M 553.5 150.33 L 546.46 153.74 L 548.25 150.26 L 546.55 146.74 Z" fill="#000000" stroke="#000000" stroke-miterlimit="10" pointer-events="all"/><rect x="417.97" y="120" width="80" height="60" rx="9" ry="9" fill="none" stroke="#000000" pointer-events="all"/><g transform="translate(-0.5 -0.5)"><switch><foreignObject style="overflow: visible; text-align: left;" pointer-events="none" width="100%" height="100%" requiredFeatures="http://www.w3.org/TR/SVG11/feature#Extensibility"><div xmlns="http://www.w3.org/1999/xhtml" style="display: flex; align-items: unsafe center; justify-content: unsafe center; width: 78px; height: 1px; padding-top: 150px; margin-left: 419px;"><div style="box-sizing: border-box; font-size: 0; text-align: center; "><div style="display: inline-block; font-size: 10px; font-family: Helvetica; color: #000000; line-height: 1.2; pointer-events: all; white-space: normal; word-wrap: normal; ">Host-accelerator Data Interface</div></div></div></foreignObject><text x="458" y="153" fill="#000000" font-family="Helvetica" font-size="10px" text-anchor="middle">Host-accelerator...</text></switch></g><path d="M 504.34 29.99 L 525.48 29.97 L 548.25 29.73" fill="none" stroke="#000000" stroke-miterlimit="10" pointer-events="stroke"/><path d="M 499.09 30 L 506.08 26.49 L 504.34 29.99 L 506.09 33.49 Z" fill="#000000" stroke="#000000" stroke-miterlimit="10" pointer-events="all"/><path d="M 553.5 29.67 L 546.54 33.24 L 548.25 29.73 L 546.47 26.25 Z" fill="#000000" stroke="#000000" stroke-miterlimit="10" pointer-events="all"/><path d="M 411.6 30 L 7.97 29.97 L 7.97 465 L 31.6 465" fill="none" stroke="#000000" stroke-miterlimit="10" pointer-events="stroke"/><path d="M 416.85 30 L 409.85 33.5 L 411.6 30 L 409.85 26.5 Z" fill="#000000" stroke="#000000" stroke-miterlimit="10" pointer-events="all"/><path d="M 36.85 465 L 29.85 468.5 L 31.6 465 L 29.85 461.5 Z" fill="#000000" stroke="#000000" stroke-miterlimit="10" pointer-events="all"/><rect x="417.97" y="0" width="80" height="60" rx="9" ry="9" fill="none" stroke="#000000" pointer-events="all"/><g transform="translate(-0.5 -0.5)"><switch><foreignObject style="overflow: visible; text-align: left;" pointer-events="none" width="100%" height="100%" requiredFeatures="http://www.w3.org/TR/SVG11/feature#Extensibility"><div xmlns="http://www.w3.org/1999/xhtml" style="display: flex; align-items: unsafe center; justify-content: unsafe center; width: 78px; height: 1px; padding-top: 30px; margin-left: 419px;"><div style="box-sizing: border-box; font-size: 0; text-align: center; "><div style="display: inline-block; font-size: 10px; font-family: Helvetica; color: #000000; line-height: 1.2; pointer-events: all; white-space: normal; word-wrap: normal; ">Host-accelerator Control Interface</div></div></div></foreignObject><text x="458" y="33" fill="#000000" font-family="Helvetica" font-size="10px" text-anchor="middle">Host-accelerator...</text></switch></g><rect x="552.97" y="5" width="50" height="60" rx="7.5" ry="7.5" fill="none" stroke="#000000" pointer-events="all"/><g transform="translate(-0.5 -0.5)"><switch><foreignObject style="overflow: visible; text-align: left;" pointer-events="none" width="100%" height="100%" requiredFeatures="http://www.w3.org/TR/SVG11/feature#Extensibility"><div xmlns="http://www.w3.org/1999/xhtml" style="display: flex; align-items: unsafe center; justify-content: unsafe center; width: 48px; height: 1px; padding-top: 35px; margin-left: 554px;"><div style="box-sizing: border-box; font-size: 0; text-align: center; "><div style="display: inline-block; font-size: 10px; font-family: Helvetica; color: #000000; line-height: 1.2; pointer-events: all; white-space: normal; word-wrap: normal; ">Memory mapped<br />Control Interface</div></div></div></foreignObject><text x="578" y="38" fill="#000000" font-family="Helvetica" font-size="10px" text-anchor="middle">Memory map...</text></switch></g><rect x="552.97" y="115" width="50" height="60" rx="7.5" ry="7.5" fill="none" stroke="#000000" pointer-events="all"/><g transform="translate(-0.5 -0.5)"><switch><foreignObject style="overflow: visible; text-align: left;" pointer-events="none" width="100%" height="100%" requiredFeatures="http://www.w3.org/TR/SVG11/feature#Extensibility"><div xmlns="http://www.w3.org/1999/xhtml" style="display: flex; align-items: unsafe center; justify-content: unsafe center; width: 48px; height: 1px; padding-top: 145px; margin-left: 554px;"><div style="box-sizing: border-box; font-size: 0; text-align: center; "><div style="display: inline-block; font-size: 10px; font-family: Helvetica; color: #000000; line-height: 1.2; pointer-events: all; white-space: normal; word-wrap: normal; ">Memory mapped<br />Data Interface</div></div></div></foreignObject><text x="578" y="148" fill="#000000" font-family="Helvetica" font-size="10px" text-anchor="middle">Memory map...</text></switch></g><path d="M 97.97 435 L 212.97 330" fill="none" stroke="#bababa" stroke-miterlimit="10" pointer-events="stroke"/><path d="M 57.97 435 L 58.03 119.97 L 71.6 119.99" fill="none" stroke="#000000" stroke-miterlimit="10" pointer-events="stroke"/><path d="M 76.85 120 L 69.85 123.49 L 71.6 119.99 L 69.86 116.49 Z" fill="#000000" stroke="#000000" stroke-miterlimit="10" pointer-events="all"/><path d="M 117.97 480 L 418.03 480.03 L 417.99 466.37" fill="none" stroke="#000000" stroke-miterlimit="10" pointer-events="stroke"/><path d="M 417.97 461.12 L 421.5 468.11 L 417.99 466.37 L 414.5 468.13 Z" fill="#000000" stroke="#000000" stroke-miterlimit="10" pointer-events="all"/><rect x="37.97" y="435" width="80" height="60" rx="9" ry="9" fill="none" stroke="#000000" pointer-events="all"/><g transform="translate(-0.5 -0.5)"><switch><foreignObject style="overflow: visible; text-align: left;" pointer-events="none" width="100%" height="100%" requiredFeatures="http://www.w3.org/TR/SVG11/feature#Extensibility"><div xmlns="http://www.w3.org/1999/xhtml" style="display: flex; align-items: unsafe center; justify-content: unsafe center; width: 78px; height: 1px; padding-top: 465px; margin-left: 39px;"><div style="box-sizing: border-box; font-size: 0; text-align: center; "><div style="display: inline-block; font-size: 10px; font-family: Helvetica; color: #000000; line-height: 1.2; pointer-events: all; white-space: normal; word-wrap: normal; ">Control Unit</div></div></div></foreignObject><text x="78" y="468" fill="#000000" font-family="Helvetica" font-size="10px" text-anchor="middle">Control Unit</text></switch></g><rect x="392.97" y="310" width="35" height="20" fill="none" stroke="none" transform="rotate(90,410.47,320)" pointer-events="all"/><g transform="translate(-0.5 -0.5)rotate(90 410.47 320)"><switch><foreignObject style="overflow: visible; text-align: left;" pointer-events="none" width="100%" height="100%" requiredFeatures="http://www.w3.org/TR/SVG11/feature#Extensibility"><div xmlns="http://www.w3.org/1999/xhtml" style="display: flex; align-items: unsafe center; justify-content: unsafe center; width: 1px; height: 1px; padding-top: 320px; margin-left: 410px;"><div style="box-sizing: border-box; font-size: 0; text-align: center; "><div style="display: inline-block; font-size: 10px; font-family: Helvetica; color: #000000; line-height: 1.2; pointer-events: all; white-space: nowrap; ">ODF</div></div></div></foreignObject><text x="410" y="323" fill="#000000" font-family="Helvetica" font-size="10px" text-anchor="middle">ODF</text></switch></g><rect x="277.97" y="420" width="35" height="20" fill="none" stroke="none" pointer-events="all"/><g transform="translate(-0.5 -0.5)"><switch><foreignObject style="overflow: visible; text-align: left;" pointer-events="none" width="100%" height="100%" requiredFeatures="http://www.w3.org/TR/SVG11/feature#Extensibility"><div xmlns="http://www.w3.org/1999/xhtml" style="display: flex; align-items: unsafe center; justify-content: unsafe center; width: 1px; height: 1px; padding-top: 430px; margin-left: 295px;"><div style="box-sizing: border-box; font-size: 0; text-align: center; "><div style="display: inline-block; font-size: 10px; font-family: Helvetica; color: #000000; line-height: 1.2; pointer-events: all; white-space: nowrap; ">ODF</div></div></div></foreignObject><text x="295" y="433" fill="#000000" font-family="Helvetica" font-size="10px" text-anchor="middle">ODF</text></switch></g><path d="M 312.97 260 L 313 335 L 210.97 335" fill="none" stroke="#bababa" stroke-miterlimit="10" pointer-events="stroke"/><ellipse cx="207.97" cy="335" rx="3" ry="3" fill="#bababa" stroke="#bababa" pointer-events="all"/><path d="M 217.97 325 L 232.97 310" fill="none" stroke="#bababa" stroke-width="2" stroke-miterlimit="10" stroke-dasharray="2 6" pointer-events="stroke"/><path d="M 312.97 255 L 312.97 235" fill="none" stroke="#bababa" stroke-width="2" stroke-miterlimit="10" stroke-dasharray="2 6" pointer-events="stroke"/><path d="M 362.97 255 L 362.97 235" fill="none" stroke="#bababa" stroke-width="2" stroke-miterlimit="10" stroke-dasharray="2 6" pointer-events="stroke"/><path d="M 282.97 215 L 302.97 215" fill="none" stroke="#bababa" stroke-width="2" stroke-miterlimit="10" stroke-dasharray="2 6" pointer-events="stroke"/><path d="M 282.97 165 L 302.97 165" fill="none" stroke="#bababa" stroke-width="2" stroke-miterlimit="10" stroke-dasharray="2 6" pointer-events="stroke"/></g><switch><g requiredFeatures="http://www.w3.org/TR/SVG11/feature#Extensibility"/><a transform="translate(0,-5)" xlink:href="https://www.diagrams.net/doc/faq/svg-export-text-problems" target="_blank"><text text-anchor="middle" font-size="10px" x="50%" y="100%">Viewer does not support full SVG 1.1</text></a></switch></svg>
